<?xml version="1.0" encoding="UTF-8" standalone="no"?>
<!-- Created with Inkscape (http://www.inkscape.org/) -->

<svg
   xmlns:dc="http://purl.org/dc/elements/1.1/"
   xmlns:cc="http://creativecommons.org/ns#"
   xmlns:rdf="http://www.w3.org/1999/02/22-rdf-syntax-ns#"
   xmlns:svg="http://www.w3.org/2000/svg"
   xmlns="http://www.w3.org/2000/svg"
   xmlns:sodipodi="http://sodipodi.sourceforge.net/DTD/sodipodi-0.dtd"
   xmlns:inkscape="http://www.inkscape.org/namespaces/inkscape"
   width="744.09448819"
   height="1052.3622047"
   id="svg2"
   version="1.1"
   inkscape:version="0.48.5 r10040"
   sodipodi:docname="angulo-de-reposo.svg">
  <defs
     id="defs4">
    <marker
       inkscape:stockid="Arrow1Lend"
       orient="auto"
       refY="0.0"
       refX="0.0"
       id="Arrow1Lend"
       style="overflow:visible;">
      <path
         id="path3809"
         d="M 0.0,0.0 L 5.0,-5.0 L -12.5,0.0 L 5.0,5.0 L 0.0,0.0 z "
         style="fill-rule:evenodd;stroke:#000000;stroke-width:1.0pt;"
         transform="scale(0.8) rotate(180) translate(12.5,0)" />
    </marker>
    <marker
       inkscape:stockid="Arrow1Lstart"
       orient="auto"
       refY="0.0"
       refX="0.0"
       id="Arrow1Lstart"
       style="overflow:visible">
      <path
         id="path3806"
         d="M 0.0,0.0 L 5.0,-5.0 L -12.5,0.0 L 5.0,5.0 L 0.0,0.0 z "
         style="fill-rule:evenodd;stroke:#000000;stroke-width:1.0pt"
         transform="scale(0.8) translate(12.5,0)" />
    </marker>
  </defs>
  <sodipodi:namedview
     id="base"
     pagecolor="#ffffff"
     bordercolor="#666666"
     borderopacity="1.0"
     inkscape:pageopacity="0.0"
     inkscape:pageshadow="2"
     inkscape:zoom="0.70710678"
     inkscape:cx="320.79803"
     inkscape:cy="717.48603"
     inkscape:document-units="px"
     inkscape:current-layer="layer1"
     showgrid="false"
     inkscape:window-width="1366"
     inkscape:window-height="713"
     inkscape:window-x="-2"
     inkscape:window-y="-3"
     inkscape:window-maximized="1" />
  <metadata
     id="metadata7">
    <rdf:RDF>
      <cc:Work
         rdf:about="">
        <dc:format>image/svg+xml</dc:format>
        <dc:type
           rdf:resource="http://purl.org/dc/dcmitype/StillImage" />
        <dc:title />
      </cc:Work>
    </rdf:RDF>
  </metadata>
  <g
     inkscape:label="Layer 1"
     inkscape:groupmode="layer"
     id="layer1">
    <rect
       style="fill:#ac9393;fill-opacity:1;stroke:none;stroke-width:2.59999989999999981;stroke-linecap:butt;stroke-miterlimit:4;stroke-opacity:1;stroke-dasharray:none;stroke-dashoffset:0"
       id="rect2993"
       width="173.94827"
       height="12.727922"
       x="87.681244"
       y="157.16499" />
    <path
       style="fill:#d38d5f;stroke:none"
       d="m 109.64444,157.95789 60.76829,-66.553823 54.94723,65.846713 z"
       id="path3775"
       inkscape:connector-curvature="0"
       sodipodi:nodetypes="cccc" />
    <rect
       style="fill:#d38d5f;fill-opacity:1;stroke:none"
       id="rect3798"
       width="194.10081"
       height="47.376156"
       x="299.10617"
       y="140.19443" />
    <path
       style="fill:#d38d5f;stroke:none"
       d="m 330.98906,157.17158 60.76829,-66.55382 54.94723,65.84671 z"
       id="path3775-6"
       inkscape:connector-curvature="0"
       sodipodi:nodetypes="cccc" />
    <rect
       style="fill:#ac9393;fill-opacity:1;stroke:none"
       id="rect2993-3"
       width="116.43356"
       height="12.727922"
       x="330.94617"
       y="155.31801" />
    <rect
       style="fill:#d38d5f;fill-opacity:1;stroke:none"
       id="rect3800"
       width="4.5961943"
       height="1.4142135"
       x="471.99377"
       y="184.38861" />
    <rect
       style="fill:#ac9393;fill-opacity:1;stroke:none"
       id="rect2993-3-7"
       width="22.741915"
       height="43.133511"
       x="377.36099"
       y="166.71094" />
    <rect
       style="fill:none;stroke:#ac9393;stroke-width:5.60446898;stroke-opacity:1;stroke-miterlimit:4;stroke-dasharray:none"
       id="rect2993-3-7-5"
       width="57.439362"
       height="114.44265"
       x="195.85829"
       y="521.32886"
       transform="matrix(0.63761688,-0.77035363,0.85308987,0.52176401,0,0)" />
    <rect
       style="fill:#ffffff;fill-opacity:1;stroke:none"
       id="rect2993-3-7-5-3"
       width="54.086239"
       height="108.63814"
       x="208.20998"
       y="522.1405"
       transform="matrix(0.64716359,-0.76235116,0.85887868,0.51217908,0,0)" />
    <rect
       style="fill:#d38d5f;fill-opacity:1;stroke:none"
       id="rect2993-3-7-5-3-5"
       width="54.993404"
       height="110.93954"
       x="187.77519"
       y="520.17218"
       transform="matrix(0.65227245,-0.7579846,0.86191928,0.50704552,0,0)" />
    <rect
       style="fill:#ac9393;fill-opacity:1;stroke:none"
       id="rect2993-6"
       width="173.94827"
       height="12.727922"
       x="550.02588"
       y="182.99821" />
    <path
       sodipodi:type="arc"
       style="fill:#d38d5f;fill-opacity:1;stroke:none"
       id="path3896-9"
       sodipodi:cx="225.5"
       sodipodi:cy="334.86218"
       sodipodi:rx="99.5"
       sodipodi:ry="91.5"
       d="M 302.82547,277.27873 A 99.5,91.5 0 0 1 151.6657,396.19838"
       sodipodi:start="5.602498"
       sodipodi:end="8.6901098"
       transform="matrix(0.73774871,0,0,0.73774871,1.6376701,82.31804)"
       sodipodi:open="true" />
    <path
       sodipodi:type="arc"
       style="fill:none;fill-opacity:1;stroke:#ac9393;stroke-opacity:1;stroke-width:14.148449;stroke-miterlimit:4;stroke-dasharray:none"
       id="path3896"
       sodipodi:cx="225.5"
       sodipodi:cy="334.86218"
       sodipodi:rx="99.5"
       sodipodi:ry="91.5"
       d="m 275.25,255.62086 a 99.5,91.5 0 1 1 -10e-6,0"
       sodipodi:start="5.2359878"
       sodipodi:end="11.519173"
       sodipodi:open="true"
       transform="matrix(0.73774871,0,0,0.73774871,3.039306,81.81804)" />
    <rect
       style="fill:none;fill-opacity:1;stroke:#ac9393;stroke-opacity:1;stroke-width:9.4;stroke-miterlimit:4;stroke-dasharray:none"
       id="rect2993-1"
       width="170.94827"
       height="122.72792"
       x="311.02585"
       y="272.99823" />
    <rect
       style="fill:#ffffff;fill-opacity:1;stroke:none"
       id="rect3941"
       width="15.227029"
       height="20"
       x="477.27298"
       y="370.61218" />
    <path
       style="fill:#d38d5f;stroke:none"
       d="m 315.25934,391.43967 -0.35258,-95.01753 171.10415,94.83808 z"
       id="path3775-2"
       inkscape:connector-curvature="0"
       sodipodi:nodetypes="cccc" />
    <rect
       style="fill:#ffffff;fill-opacity:1;stroke:none"
       id="rect3961"
       width="161.92744"
       height="23.688053"
       x="315.72318"
       y="258.10449" />
    <path
       style="fill:#d38d5f;stroke:none"
       d="m 557.91412,389.58219 -0.35258,-33.49924 54.43153,33.31979 z"
       id="path3775-2-9"
       inkscape:connector-curvature="0"
       sodipodi:nodetypes="cccc" />
    <rect
       style="fill:none;stroke:#ac9393;stroke-width:9.39999962;stroke-miterlimit:4;stroke-opacity:1;stroke-dasharray:none"
       id="rect2993-1-7"
       width="170.94827"
       height="122.72792"
       x="553.75043"
       y="271.16351" />
    <rect
       style="fill:#ffffff;fill-opacity:1;stroke:none"
       id="rect3961-0"
       width="54.486427"
       height="23.688053"
       x="611.29382"
       y="381.49463"
       ry="0" />
    <path
       style="fill:#d38d5f;stroke:none"
       d="m 719.98819,389.2368 0.35258,-33.49924 -54.43153,33.44479 z"
       id="path3775-2-9-3"
       inkscape:connector-curvature="0"
       sodipodi:nodetypes="cccc" />
    <path
       style="fill:#d38d5f;stroke:none"
       d="m 118.68025,533.21521 60.76829,-66.55382 54.94723,65.84671 z"
       id="path3775-6-0"
       inkscape:connector-curvature="0"
       sodipodi:nodetypes="cccc" />
    <rect
       style="fill:#ac9393;fill-opacity:1;stroke:none"
       id="rect2993-3-6"
       width="116.43356"
       height="12.727922"
       x="118.63735"
       y="531.36163" />
    <rect
       style="fill:#d38d5f;fill-opacity:1;stroke:none"
       id="rect3800-2"
       width="4.5961943"
       height="1.4142135"
       x="259.68497"
       y="560.43225" />
    <rect
       style="fill:#ac9393;fill-opacity:1;stroke:none"
       id="rect2993-3-7-6"
       width="22.741915"
       height="43.133511"
       x="165.05217"
       y="542.75458" />
    <path
       style="fill:none;stroke:#000000;stroke-width:2.7;stroke-linecap:butt;stroke-linejoin:miter;stroke-opacity:1;stroke-miterlimit:4;stroke-dasharray:none"
       d="m 628.5,160.86218 c -9.0497,7.43488 -7.14496,15.90941 -3,22"
       id="path4065"
       inkscape:connector-curvature="0"
       sodipodi:nodetypes="cc" />
    <path
       style="fill:none;stroke:#000000;stroke-width:2.89766288;stroke-linecap:butt;stroke-linejoin:miter;stroke-miterlimit:4;stroke-opacity:1;stroke-dasharray:none"
       d="m 416.49681,120.50863 c -6.22127,4.49118 -7.49851,10.99422 -7.24264,19.63808"
       id="path4065-1"
       inkscape:connector-curvature="0"
       sodipodi:nodetypes="cc" />
    <path
       style="fill:none;stroke:#000000;stroke-width:2.70000005;stroke-linecap:butt;stroke-linejoin:miter;stroke-miterlimit:4;stroke-opacity:1;stroke-dasharray:none"
       d="m 207.2286,134.49773 c -8.34259,5.31356 -9.61983,13.78809 -8.3033,21.64645"
       id="path4065-8"
       inkscape:connector-curvature="0"
       sodipodi:nodetypes="cc" />
    <path
       style="fill:none;stroke:#000000;stroke-width:2.70000005;stroke-linecap:butt;stroke-linejoin:miter;stroke-miterlimit:4;stroke-opacity:1;stroke-dasharray:none"
       d="m 431.4783,360.86218 c -11.2997,5.93488 -11.89496,20.40941 -9.5,29.5"
       id="path4065-7"
       inkscape:connector-curvature="0"
       sodipodi:nodetypes="cc" />
    <path
       style="fill:none;stroke:#000000;stroke-width:2.70000005;stroke-linecap:butt;stroke-linejoin:miter;stroke-miterlimit:4;stroke-opacity:1;stroke-dasharray:none"
       d="m 217.8297,512.96358 c -8.69615,0.71737 -11.03405,11.31322 -9.36396,18.64124"
       id="path4065-9"
       inkscape:connector-curvature="0"
       sodipodi:nodetypes="cc" />
    <path
       style="fill:none;stroke:#000000;stroke-width:2.70000005;stroke-linecap:butt;stroke-linejoin:miter;stroke-miterlimit:4;stroke-opacity:1;stroke-dasharray:none"
       d="m 174.2283,327.11218 c 9.90738,3.98675 11.05078,13.02573 9.5,22"
       id="path4065-2"
       inkscape:connector-curvature="0"
       sodipodi:nodetypes="cc" />
    <path
       style="fill:none;stroke:#000000;stroke-width:2.70000005;stroke-linecap:butt;stroke-linejoin:miter;stroke-miterlimit:4;stroke-opacity:1;stroke-dasharray:none"
       d="m 578.2283,369.86218 c -6.7997,1.93488 -7.39496,9.65941 -7,17.5"
       id="path4065-0"
       inkscape:connector-curvature="0"
       sodipodi:nodetypes="cc" />
    <path
       style="fill:none;stroke:#000000;stroke-width:2;stroke-linecap:butt;stroke-linejoin:miter;stroke-opacity:1;stroke-miterlimit:4;stroke-dasharray:none"
       d="m 145,349.36218 54.5,-0.25"
       id="path4120"
       inkscape:connector-curvature="0"
       sodipodi:nodetypes="cc" />
    <path
       style="fill:none;stroke:#000000;stroke-width:2;stroke-linecap:butt;stroke-linejoin:miter;stroke-miterlimit:4;stroke-opacity:1;stroke-dasharray:none"
       d="m 383.75,140.48718 54.5,-0.25"
       id="path4120-2"
       inkscape:connector-curvature="0"
       sodipodi:nodetypes="cc" />
  </g>
</svg>
