<?xml version="1.0" encoding="UTF-8" standalone="no"?>
<!-- Created with Inkscape (http://www.inkscape.org/) -->

<svg
   xmlns:dc="http://purl.org/dc/elements/1.1/"
   xmlns:cc="http://creativecommons.org/ns#"
   xmlns:rdf="http://www.w3.org/1999/02/22-rdf-syntax-ns#"
   xmlns:svg="http://www.w3.org/2000/svg"
   xmlns="http://www.w3.org/2000/svg"
   xmlns:sodipodi="http://sodipodi.sourceforge.net/DTD/sodipodi-0.dtd"
   xmlns:inkscape="http://www.inkscape.org/namespaces/inkscape"
   width="744.09448819"
   height="1052.3622047"
   id="svg2"
   version="1.1"
   inkscape:version="0.48.5 r10040"
   sodipodi:docname="janssen-OSL-pila.svg"
   inkscape:export-filename="/home/luis/interaccion/granulares/2016/clases/estres/figs/janssen1.png"
   inkscape:export-xdpi="300"
   inkscape:export-ydpi="300">
  <defs
     id="defs4">
    <inkscape:perspective
       sodipodi:type="inkscape:persp3d"
       inkscape:vp_x="0 : 526.18109 : 1"
       inkscape:vp_y="0 : 1000 : 0"
       inkscape:vp_z="744.09448 : 526.18109 : 1"
       inkscape:persp3d-origin="372.04724 : 350.78739 : 1"
       id="perspective3150" />
    <marker
       inkscape:stockid="Arrow1Mend"
       orient="auto"
       refY="0.0"
       refX="0.0"
       id="Arrow1Mend"
       style="overflow:visible;">
      <path
         id="path3844"
         d="M 0.0,0.0 L 5.0,-5.0 L -12.5,0.0 L 5.0,5.0 L 0.0,0.0 z "
         style="fill-rule:evenodd;stroke:#000000;stroke-width:1.0pt;"
         transform="scale(0.4) rotate(180) translate(10,0)" />
    </marker>
    <marker
       inkscape:stockid="Arrow1Lend"
       orient="auto"
       refY="0.0"
       refX="0.0"
       id="Arrow1Lend"
       style="overflow:visible;">
      <path
         id="path3809"
         d="M 0.0,0.0 L 5.0,-5.0 L -12.5,0.0 L 5.0,5.0 L 0.0,0.0 z "
         style="fill-rule:evenodd;stroke:#000000;stroke-width:1.0pt;"
         transform="scale(0.8) rotate(180) translate(12.5,0)" />
    </marker>
    <marker
       inkscape:stockid="Arrow1Lstart"
       orient="auto"
       refY="0.0"
       refX="0.0"
       id="Arrow1Lstart"
       style="overflow:visible">
      <path
         id="path3806"
         d="M 0.0,0.0 L 5.0,-5.0 L -12.5,0.0 L 5.0,5.0 L 0.0,0.0 z "
         style="fill-rule:evenodd;stroke:#000000;stroke-width:1.0pt"
         transform="scale(0.8) translate(12.5,0)" />
    </marker>
    <marker
       inkscape:stockid="Arrow1Mend"
       orient="auto"
       refY="0"
       refX="0"
       id="Arrow1Mend-7"
       style="overflow:visible">
      <path
         inkscape:connector-curvature="0"
         id="path3844-5"
         d="M 0,0 5,-5 -12.5,0 5,5 0,0 z"
         style="fill-rule:evenodd;stroke:#000000;stroke-width:1pt"
         transform="matrix(-0.4,0,0,-0.4,-4,0)" />
    </marker>
    <marker
       inkscape:stockid="Arrow1Mend"
       orient="auto"
       refY="0"
       refX="0"
       id="Arrow1Mend-5"
       style="overflow:visible">
      <path
         inkscape:connector-curvature="0"
         id="path3844-6"
         d="M 0,0 5,-5 -12.5,0 5,5 0,0 z"
         style="fill-rule:evenodd;stroke:#000000;stroke-width:1pt"
         transform="matrix(-0.4,0,0,-0.4,-4,0)" />
    </marker>
    <marker
       inkscape:stockid="Arrow1Mend"
       orient="auto"
       refY="0"
       refX="0"
       id="Arrow1Mend-3"
       style="overflow:visible">
      <path
         inkscape:connector-curvature="0"
         id="path3844-67"
         d="M 0,0 5,-5 -12.5,0 5,5 0,0 z"
         style="fill-rule:evenodd;stroke:#000000;stroke-width:1pt"
         transform="matrix(-0.4,0,0,-0.4,-4,0)" />
    </marker>
    <marker
       inkscape:stockid="Arrow1Mend"
       orient="auto"
       refY="0"
       refX="0"
       id="Arrow1Mend-35"
       style="overflow:visible">
      <path
         inkscape:connector-curvature="0"
         id="path3844-62"
         d="M 0,0 5,-5 -12.5,0 5,5 0,0 z"
         style="fill-rule:evenodd;stroke:#000000;stroke-width:1pt"
         transform="matrix(-0.4,0,0,-0.4,-4,0)" />
    </marker>
    <marker
       inkscape:stockid="Arrow1Mend"
       orient="auto"
       refY="0"
       refX="0"
       id="Arrow1Mend-1"
       style="overflow:visible">
      <path
         inkscape:connector-curvature="0"
         id="path3844-2"
         d="M 0,0 5,-5 -12.5,0 5,5 0,0 z"
         style="fill-rule:evenodd;stroke:#000000;stroke-width:1pt"
         transform="matrix(-0.4,0,0,-0.4,-4,0)" />
    </marker>
    <marker
       inkscape:stockid="Arrow1Mend"
       orient="auto"
       refY="0"
       refX="0"
       id="Arrow1Mend-0"
       style="overflow:visible">
      <path
         inkscape:connector-curvature="0"
         id="path3844-9"
         d="M 0,0 5,-5 -12.5,0 5,5 0,0 z"
         style="fill-rule:evenodd;stroke:#000000;stroke-width:1pt"
         transform="matrix(-0.4,0,0,-0.4,-4,0)" />
    </marker>
    <marker
       inkscape:stockid="Arrow1Mend"
       orient="auto"
       refY="0"
       refX="0"
       id="Arrow1Mend-6"
       style="overflow:visible">
      <path
         inkscape:connector-curvature="0"
         id="path3844-0"
         d="M 0,0 5,-5 -12.5,0 5,5 0,0 z"
         style="fill-rule:evenodd;stroke:#000000;stroke-width:1pt"
         transform="matrix(-0.4,0,0,-0.4,-4,0)" />
    </marker>
    <marker
       inkscape:stockid="Arrow1Mend"
       orient="auto"
       refY="0"
       refX="0"
       id="Arrow1Mend-2"
       style="overflow:visible">
      <path
         inkscape:connector-curvature="0"
         id="path3844-61"
         d="M 0,0 5,-5 -12.5,0 5,5 0,0 z"
         style="fill-rule:evenodd;stroke:#000000;stroke-width:1pt"
         transform="matrix(-0.4,0,0,-0.4,-4,0)" />
    </marker>
    <marker
       inkscape:stockid="Arrow1Mend"
       orient="auto"
       refY="0"
       refX="0"
       id="Arrow1Mend-79"
       style="overflow:visible">
      <path
         inkscape:connector-curvature="0"
         id="path3844-20"
         d="M 0,0 5,-5 -12.5,0 5,5 0,0 z"
         style="fill-rule:evenodd;stroke:#000000;stroke-width:1pt"
         transform="matrix(-0.4,0,0,-0.4,-4,0)" />
    </marker>
    <marker
       inkscape:stockid="Arrow1Mend"
       orient="auto"
       refY="0"
       refX="0"
       id="Arrow1Mend-37"
       style="overflow:visible">
      <path
         inkscape:connector-curvature="0"
         id="path3844-59"
         d="M 0,0 5,-5 -12.5,0 5,5 0,0 z"
         style="fill-rule:evenodd;stroke:#000000;stroke-width:1pt"
         transform="matrix(-0.4,0,0,-0.4,-4,0)" />
    </marker>
    <marker
       inkscape:stockid="Arrow1Mend"
       orient="auto"
       refY="0"
       refX="0"
       id="Arrow1Mend-8"
       style="overflow:visible">
      <path
         inkscape:connector-curvature="0"
         id="path3844-97"
         d="M 0,0 5,-5 -12.5,0 5,5 0,0 z"
         style="fill-rule:evenodd;stroke:#000000;stroke-width:1pt"
         transform="matrix(-0.4,0,0,-0.4,-4,0)" />
    </marker>
    <marker
       inkscape:stockid="Arrow1Mend"
       orient="auto"
       refY="0"
       refX="0"
       id="Arrow1Mend-61"
       style="overflow:visible">
      <path
         inkscape:connector-curvature="0"
         id="path3844-29"
         d="M 0,0 5,-5 -12.5,0 5,5 0,0 z"
         style="fill-rule:evenodd;stroke:#000000;stroke-width:1pt"
         transform="matrix(-0.4,0,0,-0.4,-4,0)" />
    </marker>
    <marker
       inkscape:stockid="Arrow1Mend"
       orient="auto"
       refY="0"
       refX="0"
       id="Arrow1Mend-9"
       style="overflow:visible">
      <path
         inkscape:connector-curvature="0"
         id="path3844-4"
         d="M 0,0 5,-5 -12.5,0 5,5 0,0 z"
         style="fill-rule:evenodd;stroke:#000000;stroke-width:1pt"
         transform="matrix(-0.4,0,0,-0.4,-4,0)" />
    </marker>
    <marker
       inkscape:stockid="Arrow1Mend"
       orient="auto"
       refY="0"
       refX="0"
       id="Arrow1Mend-84"
       style="overflow:visible">
      <path
         inkscape:connector-curvature="0"
         id="path3844-50"
         d="M 0,0 5,-5 -12.5,0 5,5 0,0 z"
         style="fill-rule:evenodd;stroke:#000000;stroke-width:1pt"
         transform="matrix(-0.4,0,0,-0.4,-4,0)" />
    </marker>
    <marker
       inkscape:stockid="Arrow1Mend"
       orient="auto"
       refY="0"
       refX="0"
       id="Arrow1Mend-610"
       style="overflow:visible">
      <path
         inkscape:connector-curvature="0"
         id="path3844-63"
         d="M 0,0 5,-5 -12.5,0 5,5 0,0 z"
         style="fill-rule:evenodd;stroke:#000000;stroke-width:1pt"
         transform="matrix(-0.4,0,0,-0.4,-4,0)" />
    </marker>
    <marker
       inkscape:stockid="Arrow1Mend"
       orient="auto"
       refY="0"
       refX="0"
       id="Arrow1Mend-615"
       style="overflow:visible">
      <path
         inkscape:connector-curvature="0"
         id="path3844-54"
         d="M 0,0 5,-5 -12.5,0 5,5 0,0 z"
         style="fill-rule:evenodd;stroke:#000000;stroke-width:1pt"
         transform="matrix(-0.4,0,0,-0.4,-4,0)" />
    </marker>
    <marker
       inkscape:stockid="Arrow1Mend"
       orient="auto"
       refY="0"
       refX="0"
       id="Arrow1Mend-4"
       style="overflow:visible">
      <path
         inkscape:connector-curvature="0"
         id="path3844-3"
         d="M 0,0 5,-5 -12.5,0 5,5 0,0 z"
         style="fill-rule:evenodd;stroke:#000000;stroke-width:1pt"
         transform="matrix(-0.4,0,0,-0.4,-4,0)" />
    </marker>
    <marker
       inkscape:stockid="Arrow1Mend"
       orient="auto"
       refY="0"
       refX="0"
       id="marker4210"
       style="overflow:visible">
      <path
         inkscape:connector-curvature="0"
         id="path4212"
         d="M 0,0 5,-5 -12.5,0 5,5 0,0 z"
         style="fill-rule:evenodd;stroke:#000000;stroke-width:1pt"
         transform="matrix(-0.4,0,0,-0.4,-4,0)" />
    </marker>
    <marker
       inkscape:stockid="Arrow1Mend"
       orient="auto"
       refY="0"
       refX="0"
       id="marker4214"
       style="overflow:visible">
      <path
         inkscape:connector-curvature="0"
         id="path4216"
         d="M 0,0 5,-5 -12.5,0 5,5 0,0 z"
         style="fill-rule:evenodd;stroke:#000000;stroke-width:1pt"
         transform="matrix(-0.4,0,0,-0.4,-4,0)" />
    </marker>
    <marker
       inkscape:stockid="Arrow1Mend"
       orient="auto"
       refY="0"
       refX="0"
       id="marker4218"
       style="overflow:visible">
      <path
         inkscape:connector-curvature="0"
         id="path4220"
         d="M 0,0 5,-5 -12.5,0 5,5 0,0 z"
         style="fill-rule:evenodd;stroke:#000000;stroke-width:1pt"
         transform="matrix(-0.4,0,0,-0.4,-4,0)" />
    </marker>
    <marker
       inkscape:stockid="Arrow1Mend"
       orient="auto"
       refY="0"
       refX="0"
       id="marker4222"
       style="overflow:visible">
      <path
         inkscape:connector-curvature="0"
         id="path4224"
         d="M 0,0 5,-5 -12.5,0 5,5 0,0 z"
         style="fill-rule:evenodd;stroke:#000000;stroke-width:1pt"
         transform="matrix(-0.4,0,0,-0.4,-4,0)" />
    </marker>
    <marker
       inkscape:stockid="Arrow1Mend"
       orient="auto"
       refY="0"
       refX="0"
       id="marker4226"
       style="overflow:visible">
      <path
         inkscape:connector-curvature="0"
         id="path4228"
         d="M 0,0 5,-5 -12.5,0 5,5 0,0 z"
         style="fill-rule:evenodd;stroke:#000000;stroke-width:1pt"
         transform="matrix(-0.4,0,0,-0.4,-4,0)" />
    </marker>
    <marker
       inkscape:stockid="Arrow1Mend"
       orient="auto"
       refY="0"
       refX="0"
       id="marker4230"
       style="overflow:visible">
      <path
         inkscape:connector-curvature="0"
         id="path4232"
         d="M 0,0 5,-5 -12.5,0 5,5 0,0 z"
         style="fill-rule:evenodd;stroke:#000000;stroke-width:1pt"
         transform="matrix(-0.4,0,0,-0.4,-4,0)" />
    </marker>
    <marker
       inkscape:stockid="Arrow1Mend"
       orient="auto"
       refY="0"
       refX="0"
       id="marker4234"
       style="overflow:visible">
      <path
         inkscape:connector-curvature="0"
         id="path4236"
         d="M 0,0 5,-5 -12.5,0 5,5 0,0 z"
         style="fill-rule:evenodd;stroke:#000000;stroke-width:1pt"
         transform="matrix(-0.4,0,0,-0.4,-4,0)" />
    </marker>
    <marker
       inkscape:stockid="Arrow1Mend"
       orient="auto"
       refY="0"
       refX="0"
       id="marker4238"
       style="overflow:visible">
      <path
         inkscape:connector-curvature="0"
         id="path4240"
         d="M 0,0 5,-5 -12.5,0 5,5 0,0 z"
         style="fill-rule:evenodd;stroke:#000000;stroke-width:1pt"
         transform="matrix(-0.4,0,0,-0.4,-4,0)" />
    </marker>
    <marker
       inkscape:stockid="Arrow1Mend"
       orient="auto"
       refY="0"
       refX="0"
       id="marker4242"
       style="overflow:visible">
      <path
         inkscape:connector-curvature="0"
         id="path4244"
         d="M 0,0 5,-5 -12.5,0 5,5 0,0 z"
         style="fill-rule:evenodd;stroke:#000000;stroke-width:1pt"
         transform="matrix(-0.4,0,0,-0.4,-4,0)" />
    </marker>
    <marker
       inkscape:stockid="Arrow1Mend"
       orient="auto"
       refY="0"
       refX="0"
       id="Arrow1Mend-11"
       style="overflow:visible">
      <path
         inkscape:connector-curvature="0"
         id="path3844-597"
         d="M 0,0 5,-5 -12.5,0 5,5 0,0 z"
         style="fill-rule:evenodd;stroke:#000000;stroke-width:1pt"
         transform="matrix(-0.4,0,0,-0.4,-4,0)" />
    </marker>
    <marker
       inkscape:stockid="Arrow1Mend"
       orient="auto"
       refY="0"
       refX="0"
       id="Arrow1Mend-53"
       style="overflow:visible">
      <path
         inkscape:connector-curvature="0"
         id="path3844-56"
         d="M 0,0 5,-5 -12.5,0 5,5 0,0 z"
         style="fill-rule:evenodd;stroke:#000000;stroke-width:1pt"
         transform="matrix(-0.4,0,0,-0.4,-4,0)" />
    </marker>
    <marker
       inkscape:stockid="Arrow1Mend"
       orient="auto"
       refY="0"
       refX="0"
       id="Arrow1Mend-612"
       style="overflow:visible">
      <path
         inkscape:connector-curvature="0"
         id="path3844-93"
         d="M 0,0 5,-5 -12.5,0 5,5 0,0 z"
         style="fill-rule:evenodd;stroke:#000000;stroke-width:1pt"
         transform="matrix(-0.4,0,0,-0.4,-4,0)" />
    </marker>
    <marker
       inkscape:stockid="Arrow1Mend"
       orient="auto"
       refY="0"
       refX="0"
       id="Arrow1Mend-09"
       style="overflow:visible">
      <path
         inkscape:connector-curvature="0"
         id="path3844-36"
         d="M 0,0 5,-5 -12.5,0 5,5 0,0 z"
         style="fill-rule:evenodd;stroke:#000000;stroke-width:1pt"
         transform="matrix(-0.4,0,0,-0.4,-4,0)" />
    </marker>
    <marker
       inkscape:stockid="Arrow1Mend"
       orient="auto"
       refY="0"
       refX="0"
       id="Arrow1Mend-36"
       style="overflow:visible">
      <path
         inkscape:connector-curvature="0"
         id="path3844-7"
         d="M 0,0 5,-5 -12.5,0 5,5 0,0 z"
         style="fill-rule:evenodd;stroke:#000000;stroke-width:1pt"
         transform="matrix(-0.4,0,0,-0.4,-4,0)" />
    </marker>
  </defs>
  <sodipodi:namedview
     id="base"
     pagecolor="#ffffff"
     bordercolor="#666666"
     borderopacity="1.0"
     inkscape:pageopacity="0.0"
     inkscape:pageshadow="2"
     inkscape:zoom="0.70710678"
     inkscape:cx="811.98198"
     inkscape:cy="551.45931"
     inkscape:document-units="px"
     inkscape:current-layer="layer1"
     showgrid="false"
     inkscape:window-width="1366"
     inkscape:window-height="713"
     inkscape:window-x="-2"
     inkscape:window-y="-3"
     inkscape:window-maximized="1" />
  <metadata
     id="metadata7">
    <rdf:RDF>
      <cc:Work
         rdf:about="">
        <dc:format>image/svg+xml</dc:format>
        <dc:type
           rdf:resource="http://purl.org/dc/dcmitype/StillImage" />
        <dc:title></dc:title>
      </cc:Work>
    </rdf:RDF>
  </metadata>
  <g
     inkscape:label="Layer 1"
     inkscape:groupmode="layer"
     id="layer1">
    <path
       style="fill:none;stroke:#000000;stroke-width:3;stroke-linecap:butt;stroke-linejoin:miter;stroke-miterlimit:4;stroke-opacity:1;stroke-dasharray:none;marker-end:url(#Arrow1Mend)"
       d="m -259.87214,-170.97228 -0.25736,116.475186"
       id="path3049-2"
       inkscape:connector-curvature="0"
       sodipodi:nodetypes="cc" />
    <flowRoot
       xml:space="preserve"
       id="flowRoot4314-9"
       style="font-size:32px;font-style:normal;font-weight:normal;line-height:125%;letter-spacing:0px;word-spacing:0px;fill:#000000;fill-opacity:1;stroke:none;font-family:Sans"
       transform="translate(-455.05159,-215.74935)"><flowRegion
         id="flowRegion4316-1"><rect
           id="rect4318-2"
           width="44"
           height="54"
           x="146"
           y="106.36218"
           style="font-size:32px" /></flowRegion><flowPara
         id="flowPara4320-7">z</flowPara></flowRoot>    <rect
       style="fill:#d7eef4;fill-opacity:1;stroke:#000000;stroke-width:1.89999998;stroke-miterlimit:4;stroke-opacity:1;stroke-dasharray:none"
       id="rect4375"
       width="382"
       height="262"
       x="-356.27835"
       y="125.13174" />
    <flowRoot
       xml:space="preserve"
       id="flowRoot4314-0-8"
       style="font-size:24px;font-style:normal;font-weight:normal;line-height:125%;letter-spacing:0px;word-spacing:0px;fill:#000000;fill-opacity:1;stroke:none;font-family:Sans"
       transform="translate(-539.43581,32.9096)"><flowRegion
         id="flowRegion4316-9-7"><rect
           id="rect4318-3-9"
           width="68.041634"
           height="51.171574"
           x="146"
           y="106.36218"
           style="font-size:24px" /></flowRegion><flowPara
         id="flowPara4320-6-2">zz</flowPara></flowRoot>    <flowRoot
       xml:space="preserve"
       id="flowRoot4314-9-0"
       style="font-size:32px;font-style:normal;font-weight:normal;line-height:125%;letter-spacing:0px;word-spacing:0px;fill:#000000;fill-opacity:1;stroke:none;font-family:Sans"
       transform="translate(-143.85587,280.36016)"><flowRegion
         id="flowRegion4316-1-2"><rect
           id="rect4318-2-3"
           width="44"
           height="54"
           x="146"
           y="106.36218"
           style="font-size:32px" /></flowRegion><flowPara
         id="flowPara4320-7-7">z</flowPara></flowRoot>    <path
       style="fill:none;stroke:#ff000e;stroke-width:2.70000005;stroke-linecap:butt;stroke-linejoin:miter;stroke-miterlimit:4;stroke-opacity:1;stroke-dasharray:none"
       d="M -355.27835,386.13173 C -327.57386,214.58856 -171.985,188.569 8.7216451,191.13173"
       id="path4431"
       inkscape:connector-curvature="0"
       sodipodi:nodetypes="cc" />
    <flowRoot
       xml:space="preserve"
       id="flowRoot4435"
       style="font-size:24px;font-style:normal;font-weight:normal;line-height:125%;letter-spacing:0px;word-spacing:0px;fill:#000000;fill-opacity:1;stroke:none;font-family:Sans"
       transform="translate(-518.55874,99.81297)"><flowRegion
         id="flowRegion4437"><rect
           id="rect4439"
           width="213"
           height="30"
           x="475"
           y="101.36218"
           style="font-size:24px" /></flowRegion><flowPara
         id="flowPara4441">  g R</flowPara></flowRoot>    <path
       style="fill:#916f7c;stroke:none"
       d="M 906.51089,-32.339621 1024.6333,-146.89092 1142.6846,-33.753831 z"
       id="path3036"
       inkscape:connector-curvature="0"
       sodipodi:nodetypes="cccc"
       inkscape:export-filename="/home/luis/interaccion/granulares/2016/clases/estres/figs/pila.png"
       inkscape:export-xdpi="300"
       inkscape:export-ydpi="300" />
    <rect
       style="fill:#48373e;fill-opacity:1;stroke:none"
       id="rect3034"
       width="281.4285"
       height="8.4852705"
       x="885.29767"
       y="-35.16806"
       inkscape:export-filename="/home/luis/interaccion/granulares/2016/clases/estres/figs/pila.png"
       inkscape:export-xdpi="300"
       inkscape:export-ydpi="300" />
    <path
       style="fill:none;stroke:#000000;stroke-width:2.4000001;stroke-linecap:butt;stroke-linejoin:miter;stroke-miterlimit:4;stroke-opacity:1;stroke-dasharray:none;marker-end:url(#Arrow1Mend)"
       d="m 1054.115,48.655646 0.6177,-71.999997"
       id="path3049-3-5"
       inkscape:connector-curvature="0"
       sodipodi:nodetypes="cc"
       inkscape:export-filename="/home/luis/interaccion/granulares/2016/clases/estres/figs/pila.png"
       inkscape:export-xdpi="300"
       inkscape:export-ydpi="300" />
    <path
       style="fill:none;stroke:#000000;stroke-width:2.4000001;stroke-linecap:butt;stroke-linejoin:miter;stroke-miterlimit:4;stroke-opacity:1;stroke-dasharray:none;marker-end:url(#Arrow1Mend)"
       d="m 1025.9518,19.155726 0.1177,-42.499997"
       id="path3049-3-5-6"
       inkscape:connector-curvature="0"
       sodipodi:nodetypes="cc"
       inkscape:export-filename="/home/luis/interaccion/granulares/2016/clases/estres/figs/pila.png"
       inkscape:export-xdpi="300"
       inkscape:export-ydpi="300" />
    <path
       style="fill:none;stroke:#000000;stroke-width:2.4000001;stroke-linecap:butt;stroke-linejoin:miter;stroke-miterlimit:4;stroke-opacity:1;stroke-dasharray:none;marker-end:url(#Arrow1Mend)"
       d="m 996.95585,48.655646 0.61775,-71.999997"
       id="path3049-3-5-8"
       inkscape:connector-curvature="0"
       sodipodi:nodetypes="cc"
       inkscape:export-filename="/home/luis/interaccion/granulares/2016/clases/estres/figs/pila.png"
       inkscape:export-xdpi="300"
       inkscape:export-ydpi="300" />
    <path
       style="fill:none;stroke:#000000;stroke-width:2.4000001;stroke-linecap:butt;stroke-linejoin:miter;stroke-miterlimit:4;stroke-opacity:1;stroke-dasharray:none;marker-end:url(#Arrow1Mend)"
       d="m 968.79265,19.155726 0.11775,-42.499997"
       id="path3049-3-5-6-22"
       inkscape:connector-curvature="0"
       sodipodi:nodetypes="cc"
       inkscape:export-filename="/home/luis/interaccion/granulares/2016/clases/estres/figs/pila.png"
       inkscape:export-xdpi="300"
       inkscape:export-ydpi="300" />
    <path
       style="fill:none;stroke:#000000;stroke-width:2.4000001;stroke-linecap:butt;stroke-linejoin:miter;stroke-miterlimit:4;stroke-opacity:1;stroke-dasharray:none;marker-end:url(#Arrow1Mend)"
       d="m 939.98079,5.6551865 0.61775,-28.9999975"
       id="path3049-3-5-6-3"
       inkscape:connector-curvature="0"
       sodipodi:nodetypes="cc"
       inkscape:export-filename="/home/luis/interaccion/granulares/2016/clases/estres/figs/pila.png"
       inkscape:export-xdpi="300"
       inkscape:export-ydpi="300" />
    <path
       style="fill:none;stroke:#000000;stroke-width:2.4000001;stroke-linecap:butt;stroke-linejoin:miter;stroke-miterlimit:4;stroke-opacity:1;stroke-dasharray:none;marker-end:url(#Arrow1Mend)"
       d="m 1083.1109,19.155726 0.1177,-42.499997"
       id="path3049-3-5-6-31"
       inkscape:connector-curvature="0"
       sodipodi:nodetypes="cc"
       inkscape:export-filename="/home/luis/interaccion/granulares/2016/clases/estres/figs/pila.png"
       inkscape:export-xdpi="300"
       inkscape:export-ydpi="300" />
    <path
       style="fill:none;stroke:#000000;stroke-width:2.4000001;stroke-linecap:butt;stroke-linejoin:miter;stroke-miterlimit:4;stroke-opacity:1;stroke-dasharray:none;marker-end:url(#Arrow1Mend)"
       d="m 1111.4563,5.6551865 0.6178,-28.9999975"
       id="path3049-3-5-6-3-7"
       inkscape:connector-curvature="0"
       sodipodi:nodetypes="cc"
       inkscape:export-filename="/home/luis/interaccion/granulares/2016/clases/estres/figs/pila.png"
       inkscape:export-xdpi="300"
       inkscape:export-ydpi="300" />
    <path
       style="fill:none;stroke:#000000;stroke-width:2.4000001;stroke-linecap:butt;stroke-linejoin:miter;stroke-miterlimit:4;stroke-opacity:1;stroke-dasharray:none;marker-end:url(#Arrow1Mend)"
       d="m 1140.4034,-6.3448705 -0.3823,-17.0000005"
       id="path3049-3-5-6-3-3"
       inkscape:connector-curvature="0"
       sodipodi:nodetypes="cc"
       inkscape:export-filename="/home/luis/interaccion/granulares/2016/clases/estres/figs/pila.png"
       inkscape:export-xdpi="300"
       inkscape:export-ydpi="300" />
    <path
       style="fill:none;stroke:#000000;stroke-width:2.4000001;stroke-linecap:butt;stroke-linejoin:miter;stroke-miterlimit:4;stroke-opacity:1;stroke-dasharray:none;marker-end:url(#Arrow1Mend)"
       d="M 911.77297,-6.3448705 911.39072,-23.344871"
       id="path3049-3-5-6-3-3-2"
       inkscape:connector-curvature="0"
       sodipodi:nodetypes="cc"
       inkscape:export-filename="/home/luis/interaccion/granulares/2016/clases/estres/figs/pila.png"
       inkscape:export-xdpi="300"
       inkscape:export-ydpi="300" />
    <rect
       style="fill:#d7eef4;fill-opacity:1;stroke:#000000;stroke-width:1.89999998;stroke-miterlimit:4;stroke-opacity:1;stroke-dasharray:none"
       id="rect4375-0"
       width="382"
       height="262"
       x="944.61353"
       y="79.905144"
       inkscape:export-filename="/home/luis/interaccion/granulares/2016/clases/estres/figs/pila.png"
       inkscape:export-xdpi="300"
       inkscape:export-ydpi="300" />
    <path
       style="fill:none;stroke:#000000;stroke-width:2.4000001;stroke-linecap:butt;stroke-linejoin:miter;stroke-miterlimit:4;stroke-opacity:1;stroke-dasharray:none;marker-end:url(#Arrow1Mend)"
       d="m 1025.1744,-54.166851 93.2132,0.61775"
       id="path3049-3-7"
       inkscape:connector-curvature="0"
       sodipodi:nodetypes="cc"
       inkscape:export-filename="/home/luis/interaccion/granulares/2016/clases/estres/figs/pila.png"
       inkscape:export-xdpi="300"
       inkscape:export-ydpi="300" />
    <flowRoot
       xml:space="preserve"
       id="flowRoot4314-6"
       style="font-size:32px;font-style:normal;font-weight:normal;line-height:125%;letter-spacing:0px;word-spacing:0px;fill:#000000;fill-opacity:1;stroke:none;font-family:Sans"
       transform="translate(902.74845,-199.23152)"
       inkscape:export-filename="/home/luis/interaccion/granulares/2016/clases/estres/figs/pila.png"
       inkscape:export-xdpi="300"
       inkscape:export-ydpi="300"><flowRegion
         id="flowRegion4316-5"><rect
           id="rect4318-69"
           width="44"
           height="54"
           x="146"
           y="106.36218"
           style="font-size:32px" /></flowRegion><flowPara
         id="flowPara4320-3">R</flowPara></flowRoot>    <flowRoot
       xml:space="preserve"
       id="flowRoot4314-6-7"
       style="font-size:32px;font-style:normal;font-weight:normal;line-height:125%;letter-spacing:0px;word-spacing:0px;fill:#000000;fill-opacity:1;stroke:none;font-family:Sans"
       transform="translate(1148.5068,237.03327)"
       inkscape:export-filename="/home/luis/interaccion/granulares/2016/clases/estres/figs/pila.png"
       inkscape:export-xdpi="300"
       inkscape:export-ydpi="300"><flowRegion
         id="flowRegion4316-5-4"><rect
           id="rect4318-69-5"
           width="44"
           height="54"
           x="146"
           y="106.36218"
           style="font-size:32px" /></flowRegion><flowPara
         id="flowPara4320-3-2">R</flowPara></flowRoot>    <flowRoot
       xml:space="preserve"
       id="flowRoot4314-0-5"
       style="font-size:32px;font-style:normal;font-weight:normal;line-height:125%;letter-spacing:0px;word-spacing:0px;fill:#000000;fill-opacity:1;stroke:none;font-family:Sans"
       transform="translate(766.22348,-23.18203)"
       inkscape:export-filename="/home/luis/interaccion/granulares/2016/clases/estres/figs/pila.png"
       inkscape:export-xdpi="300"
       inkscape:export-ydpi="300"><flowRegion
         id="flowRegion4316-9-4"><rect
           id="rect4318-3-7"
           width="44"
           height="54"
           x="146"
           y="106.36218"
           style="font-size:32px" /></flowRegion><flowPara
         id="flowPara4320-6-4">F</flowPara></flowRoot>    <path
       style="fill:none;stroke:#ffc93b;stroke-width:2.70000005;stroke-linecap:butt;stroke-linejoin:miter;stroke-miterlimit:4;stroke-opacity:1;stroke-dasharray:none"
       d="m 950.35148,229.2899 c 34.7523,-37.14885 36.9355,-100.03376 80.61022,-103.2376 46.8483,-0.72366 175.5038,111.19108 250.3158,209.3036"
       id="path4152"
       inkscape:connector-curvature="0"
       sodipodi:nodetypes="ccc"
       inkscape:export-filename="/home/luis/interaccion/granulares/2016/clases/estres/figs/pila.png"
       inkscape:export-xdpi="300"
       inkscape:export-ydpi="300" />
    <path
       style="fill:none;stroke:#ff0000;stroke-width:2.70000005;stroke-linecap:butt;stroke-linejoin:miter;stroke-miterlimit:4;stroke-opacity:1;stroke-dasharray:none"
       d="m 944.69468,126.05231 c 78.83162,2.13919 199.84782,-12.62577 263.45222,20.46914 63.6044,33.09492 47.1695,128.19184 71.7164,188.83445"
       id="path4154"
       inkscape:connector-curvature="0"
       sodipodi:nodetypes="csc"
       inkscape:export-filename="/home/luis/interaccion/granulares/2016/clases/estres/figs/pila.png"
       inkscape:export-xdpi="300"
       inkscape:export-ydpi="300" />
    <flowRoot
       transform="translate(492.15957,107.90752)"
       xml:space="preserve"
       id="flowRoot4435-5-4"
       style="font-size:24px;font-style:normal;font-weight:normal;line-height:125%;letter-spacing:0px;word-spacing:0px;fill:#000000;fill-opacity:1;stroke:none;font-family:Sans"
       inkscape:export-filename="/home/luis/interaccion/granulares/2016/clases/estres/figs/pila.png"
       inkscape:export-xdpi="300"
       inkscape:export-ydpi="300"><flowRegion
         id="flowRegion4437-9-3"><rect
           id="rect4439-2-0"
           width="213"
           height="30"
           x="475"
           y="101.36218"
           style="font-size:24px" /></flowRegion><flowPara
         id="flowPara4441-2-7">chorro puntual</flowPara></flowRoot>    <flowRoot
       transform="translate(629.15957,-10.09249)"
       xml:space="preserve"
       id="flowRoot4435-5-8"
       style="font-size:24px;font-style:normal;font-weight:normal;line-height:125%;letter-spacing:0px;word-spacing:0px;fill:#000000;fill-opacity:1;stroke:none;font-family:Sans"
       inkscape:export-filename="/home/luis/interaccion/granulares/2016/clases/estres/figs/pila.png"
       inkscape:export-xdpi="300"
       inkscape:export-ydpi="300"><flowRegion
         id="flowRegion4437-9-6"><rect
           id="rect4439-2-8"
           width="213"
           height="30"
           x="475"
           y="101.36218"
           style="font-size:24px" /></flowRegion><flowPara
         id="flowPara4441-2-8">lluvia distribuida</flowPara></flowRoot>    <rect
       style="fill:#48373e;fill-opacity:1;stroke:none"
       id="rect3034-4"
       width="281.4285"
       height="8.4852705"
       x="278.71188"
       y="76.222626"
       inkscape:export-filename="/home/luis/interaccion/granulares/2016/clases/estres/figs/OSL1.png"
       inkscape:export-xdpi="300"
       inkscape:export-ydpi="300" />
    <path
       style="fill:none;stroke:#000000;stroke-width:2.4000001;stroke-linecap:butt;stroke-linejoin:miter;stroke-miterlimit:4;stroke-opacity:1;stroke-dasharray:none;marker-end:url(#Arrow1Mend)"
       d="m 263.83864,-63.02618 -0.7868,111.6177"
       id="path3049-3-7-9"
       inkscape:connector-curvature="0"
       sodipodi:nodetypes="cc"
       inkscape:export-filename="/home/luis/interaccion/granulares/2016/clases/estres/figs/OSL1.png"
       inkscape:export-xdpi="300"
       inkscape:export-ydpi="300" />
    <rect
       style="fill:#c8b7c4;fill-opacity:1;stroke:none"
       id="rect4463"
       width="270"
       height="110.5"
       x="285.38687"
       y="-32.724396"
       inkscape:export-filename="/home/luis/interaccion/granulares/2016/clases/estres/figs/OSL1.png"
       inkscape:export-xdpi="300"
       inkscape:export-ydpi="300" />
    <rect
       style="fill:#48373e;fill-opacity:1;stroke:none"
       id="rect3034-4-1"
       width="7.0710664"
       height="125.865"
       x="278.87393"
       y="-44.731537"
       inkscape:export-filename="/home/luis/interaccion/granulares/2016/clases/estres/figs/OSL1.png"
       inkscape:export-xdpi="300"
       inkscape:export-ydpi="300" />
    <rect
       style="fill:#48373e;fill-opacity:1;stroke:none"
       id="rect3034-4-1-7"
       width="7.0710664"
       height="125.865"
       x="553.23132"
       y="-44.024384"
       inkscape:export-filename="/home/luis/interaccion/granulares/2016/clases/estres/figs/OSL1.png"
       inkscape:export-xdpi="300"
       inkscape:export-ydpi="300" />
    <path
       sodipodi:type="arc"
       style="fill:#c8b7c4;fill-opacity:1;stroke:none"
       id="path3148"
       sodipodi:cx="1008.3343"
       sodipodi:cy="232.82542"
       sodipodi:rx="74.953316"
       sodipodi:ry="23.334524"
       d="m 1066.5835,218.14037 a 74.953316,23.334524 0 1 1 -1.9902,-0.73372"
       sodipodi:start="5.602498"
       sodipodi:end="11.844525"
       sodipodi:open="true"
       transform="matrix(0.95330581,0,0,1,-1123.1275,-192.33305)" />
    <path
       style="fill:none;stroke:#000000;stroke-width:2;stroke-linecap:butt;stroke-linejoin:miter;stroke-miterlimit:4;stroke-opacity:1;stroke-dasharray:none"
       d="m -236.15405,44.203165 -1.41421,-234.052345"
       id="path3166"
       inkscape:connector-curvature="0" />
    <path
       style="fill:none;stroke:#000000;stroke-width:2;stroke-linecap:butt;stroke-linejoin:miter;stroke-miterlimit:4;stroke-opacity:1;stroke-dasharray:none"
       d="m -86.620515,44.967245 -1.4142,-234.052345"
       id="path3168"
       inkscape:connector-curvature="0" />
    <path
       transform="matrix(0.99671321,0,0,1,-1166.4868,-188.09057)"
       sodipodi:type="arc"
       style="fill:none;stroke:#000000;stroke-width:2.1014564;stroke-miterlimit:4;stroke-opacity:1;stroke-dasharray:none"
       id="path3148-3"
       sodipodi:cx="1008.3343"
       sodipodi:cy="232.82542"
       sodipodi:rx="74.953316"
       sodipodi:ry="23.334524"
       d="m 1066.5835,218.14037 a 74.953316,23.334524 0 1 1 -1.9902,-0.73372"
       sodipodi:start="5.602498"
       sodipodi:end="11.844525"
       sodipodi:open="true" />
    <rect
       style="fill:#c8b7c4;fill-opacity:1;stroke:none"
       id="rect4118"
       width="142.86682"
       height="214.85078"
       x="-233.34528"
       y="-173.76099" />
    <path
       transform="matrix(0.94710207,0,0,0.77382197,-1116.4813,-342.63642)"
       sodipodi:type="arc"
       style="fill:#c8b7c4;fill-opacity:1;stroke:none"
       id="path3148-3-6-7"
       sodipodi:cx="1008.3343"
       sodipodi:cy="232.82542"
       sodipodi:rx="74.953316"
       sodipodi:ry="23.334524"
       d="m 1066.5835,218.14037 a 74.953316,23.334524 0 1 1 -1.9902,-0.73372"
       sodipodi:start="5.602498"
       sodipodi:end="11.844525"
       sodipodi:open="true" />
    <rect
       style="fill:#c8b7c4;fill-opacity:1;stroke:none"
       id="rect4174"
       width="11.5"
       height="11"
       x="-233.30463"
       y="-173.09587" />
    <rect
       style="fill:#c8b7c4;fill-opacity:1;stroke:none"
       id="rect4176"
       width="20.125"
       height="12.25"
       x="-110.30459"
       y="-173.84587" />
    <path
       transform="matrix(0.94941111,0,0,0.77382197,-1118.9171,-354.41431)"
       sodipodi:type="arc"
       style="fill:#c8b7c4;fill-opacity:1;stroke:#c8a4bd;stroke-opacity:1"
       id="path3148-3-6"
       sodipodi:cx="1008.3343"
       sodipodi:cy="232.82542"
       sodipodi:rx="74.953316"
       sodipodi:ry="23.334524"
       d="m 1066.5835,218.14037 a 74.953316,23.334524 0 1 1 -1.9902,-0.73372"
       sodipodi:start="5.602498"
       sodipodi:end="11.844525"
       sodipodi:open="true" />
    <flowRoot
       xml:space="preserve"
       id="flowRoot4314-0-1"
       style="font-size:32px;font-style:normal;font-weight:normal;line-height:125%;letter-spacing:0px;word-spacing:0px;fill:#000000;fill-opacity:1;stroke:none;font-family:Sans"
       transform="translate(-483.03885,-303.21634)"><flowRegion
         id="flowRegion4316-9-2"><rect
           id="rect4318-3-70"
           width="73.5"
           height="55.5"
           x="146"
           y="106.36218"
           style="font-size:32px" /></flowRegion><flowPara
         id="flowPara4320-6-9">z=0</flowPara></flowRoot>    <flowRoot
       xml:space="preserve"
       id="flowRoot4317"
       style="font-size:28px;font-style:normal;font-weight:normal;line-height:125%;letter-spacing:0px;word-spacing:0px;fill:#000000;fill-opacity:1;stroke:none;font-family:Sans"
       transform="translate(-957.59877,-397.94827)"><flowRegion
         id="flowRegion4319"><rect
           id="rect4321"
           width="264.45795"
           height="49.497475"
           x="893.78296"
           y="281.61578"
           style="font-size:28px" /></flowRegion><flowPara
         id="flowPara4323">S=   R</flowPara></flowRoot>    <path
       transform="translate(-1165.8423,-228.3955)"
       sodipodi:type="arc"
       style="fill:#666666;fill-opacity:1;stroke:none"
       id="path4367-6"
       sodipodi:cx="1036.7953"
       sodipodi:cy="190.39902"
       sodipodi:rx="2.6516504"
       sodipodi:ry="2.4748738"
       d="m 1039.4469,190.39902 a 2.6516504,2.4748738 0 1 1 -5.3033,0 2.6516504,2.4748738 0 1 1 5.3033,0 z" />
    <path
       transform="translate(-1205.7938,-242.18408)"
       sodipodi:type="arc"
       style="fill:#666666;fill-opacity:1;stroke:none"
       id="path4367-1"
       sodipodi:cx="1036.7953"
       sodipodi:cy="190.39902"
       sodipodi:rx="2.6516504"
       sodipodi:ry="2.4748738"
       d="m 1039.4469,190.39902 a 2.6516504,2.4748738 0 1 1 -5.3033,0 2.6516504,2.4748738 0 1 1 5.3033,0 z" />
    <path
       transform="matrix(0.46666667,0,0,0.46666667,-605.46016,-148.06256)"
       sodipodi:type="arc"
       style="fill:#666666;fill-opacity:1;stroke:none"
       id="path4367-061-95"
       sodipodi:cx="1036.7953"
       sodipodi:cy="190.39902"
       sodipodi:rx="2.6516504"
       sodipodi:ry="2.4748738"
       d="m 1039.4469,190.39902 a 2.6516504,2.4748738 0 1 1 -5.3033,0 2.6516504,2.4748738 0 1 1 5.3033,0 z" />
    <path
       transform="matrix(1.8,0,0,1.8,-1977.9544,-385.54661)"
       sodipodi:type="arc"
       style="fill:#666666;fill-opacity:1;stroke:none"
       id="path4367-061-04"
       sodipodi:cx="1036.7953"
       sodipodi:cy="190.39902"
       sodipodi:rx="2.6516504"
       sodipodi:ry="2.4748738"
       d="m 1039.4469,190.39902 a 2.6516504,2.4748738 0 1 1 -5.3033,0 2.6516504,2.4748738 0 1 1 5.3033,0 z" />
    <path
       transform="matrix(0.33333334,0,0,0.33333334,-482.42359,-121.26181)"
       sodipodi:type="arc"
       style="fill:#666666;fill-opacity:1;stroke:none"
       id="path4367-061-77"
       sodipodi:cx="1036.7953"
       sodipodi:cy="190.39902"
       sodipodi:rx="2.6516504"
       sodipodi:ry="2.4748738"
       d="m 1039.4469,190.39902 a 2.6516504,2.4748738 0 1 1 -5.3033,0 2.6516504,2.4748738 0 1 1 5.3033,0 z" />
    <path
       transform="matrix(0.33333334,0,0,0.33333334,-564.44798,-118.78694)"
       sodipodi:type="arc"
       style="fill:#666666;fill-opacity:1;stroke:none"
       id="path4367-061-159"
       sodipodi:cx="1036.7953"
       sodipodi:cy="190.39902"
       sodipodi:rx="2.6516504"
       sodipodi:ry="2.4748738"
       d="m 1039.4469,190.39902 a 2.6516504,2.4748738 0 1 1 -5.3033,0 2.6516504,2.4748738 0 1 1 5.3033,0 z" />
    <path
       transform="matrix(0.94710207,0,0,0.77382197,-1116.8831,-226.74721)"
       sodipodi:type="arc"
       style="fill:#c8b7c4;fill-opacity:1;stroke:#000000;stroke-opacity:1"
       id="path3148-3-6-7-3"
       sodipodi:cx="1008.3343"
       sodipodi:cy="232.82542"
       sodipodi:rx="74.953316"
       sodipodi:ry="23.334524"
       d="m 1066.5835,218.14037 a 74.953316,23.334524 0 1 1 -1.9902,-0.73372"
       sodipodi:start="5.602498"
       sodipodi:end="11.844525"
       sodipodi:open="true" />
    <rect
       style="fill:#c8b7c4;fill-opacity:1;stroke:none"
       id="rect4174-6"
       width="11.5"
       height="11"
       x="-233.70648"
       y="-57.206673" />
    <rect
       style="fill:#c8b7c4;fill-opacity:1;stroke:none"
       id="rect4176-7"
       width="20.125"
       height="12.25"
       x="-110.70644"
       y="-57.956673" />
    <path
       transform="matrix(0.94941111,0,0,0.77382197,-1119.319,-238.5251)"
       sodipodi:type="arc"
       style="fill:#c8b7c4;fill-opacity:1;stroke:#000000;stroke-opacity:1"
       id="path3148-3-6-5"
       sodipodi:cx="1008.3343"
       sodipodi:cy="232.82542"
       sodipodi:rx="74.953316"
       sodipodi:ry="23.334524"
       d="m 1066.5835,218.14037 a 74.953316,23.334524 0 1 1 -1.9902,-0.73372"
       sodipodi:start="5.602498"
       sodipodi:end="11.844525"
       sodipodi:open="true" />
    <path
       style="fill:none;stroke:#000000;stroke-width:2.5999999;stroke-linecap:butt;stroke-linejoin:miter;stroke-miterlimit:4;stroke-opacity:1;stroke-dasharray:none"
       d="m -269.05461,-172.47087 22,0"
       id="path4241"
       inkscape:connector-curvature="0" />
    <flowRoot
       xml:space="preserve"
       id="flowRoot4317-3"
       style="font-size:28px;font-style:normal;font-weight:normal;line-height:125%;letter-spacing:0px;word-spacing:0px;fill:#000000;fill-opacity:1;stroke:none;font-family:Sans"
       transform="translate(-955.73238,-351.80815)"><flowRegion
         id="flowRegion4319-5"><rect
           id="rect4321-6"
           width="264.45795"
           height="49.497475"
           x="893.78296"
           y="281.61578"
           style="font-size:28px" /></flowRegion><flowPara
         id="flowPara4323-2">dz</flowPara></flowRoot>    <flowRoot
       xml:space="preserve"
       id="flowRoot4317-9"
       style="font-size:22px;font-style:normal;font-weight:normal;line-height:125%;letter-spacing:0px;word-spacing:0px;fill:#000000;fill-opacity:1;stroke:none;font-family:Sans"
       transform="translate(-871.07121,-409.81246)"><flowRegion
         id="flowRegion4319-1"><rect
           id="rect4321-2"
           width="264.45795"
           height="49.497475"
           x="893.78296"
           y="281.61578"
           style="font-size:22px" /></flowRegion><flowPara
         id="flowPara4323-7">2</flowPara></flowRoot>    <path
       style="fill:none;stroke:#000000;stroke-width:3;stroke-linecap:butt;stroke-linejoin:miter;stroke-miterlimit:4;stroke-opacity:1;stroke-dasharray:none;marker-end:url(#Arrow1Mend)"
       d="m -162.27631,42.051325 65.732195,-0.52482"
       id="path3049-2-0"
       inkscape:connector-curvature="0"
       sodipodi:nodetypes="cc" />
    <flowRoot
       xml:space="preserve"
       id="flowRoot4314-9-6"
       style="font-size:32px;font-style:normal;font-weight:normal;line-height:125%;letter-spacing:0px;word-spacing:0px;fill:#000000;fill-opacity:1;stroke:none;font-family:Sans"
       transform="translate(-295.11268,-99.281647)"><flowRegion
         id="flowRegion4316-1-26"><rect
           id="rect4318-2-1"
           width="44"
           height="54"
           x="146"
           y="106.36218"
           style="font-size:32px" /></flowRegion><flowPara
         id="flowPara4320-7-8">R</flowPara></flowRoot>    <text
       xml:space="preserve"
       style="font-size:22px;font-style:normal;font-weight:normal;line-height:125%;letter-spacing:0px;word-spacing:0px;fill:#000000;fill-opacity:1;stroke:none;font-family:Sans"
       x="-17.343409"
       y="-89.909004"
       id="text8753"
       sodipodi:linespacing="125%"
       inkscape:export-filename="/home/luis/interaccion/granulares/2016/clases/estres/figs/mohr2.png"
       inkscape:export-xdpi="300"
       inkscape:export-ydpi="300"><tspan
         sodipodi:role="line"
         id="tspan8755"
         x="-17.343409"
         y="-89.909004">II</tspan></text>
    <path
       style="fill:none;stroke:#000000;stroke-width:1.93428349;stroke-linecap:butt;stroke-linejoin:miter;stroke-miterlimit:4;stroke-opacity:1;stroke-dasharray:none"
       d="m -20.768455,-103.06519 c 7.1316,-2.34931 14.2422501,-4.47801 20.72537013,0"
       id="path8761-7"
       inkscape:connector-curvature="0"
       inkscape:transform-center-x="-11.25689"
       inkscape:transform-center-y="3.6982606"
       sodipodi:nodetypes="cc"
       inkscape:export-filename="/home/luis/interaccion/granulares/2016/clases/estres/figs/mohr2.png"
       inkscape:export-xdpi="300"
       inkscape:export-ydpi="300" />
    <path
       style="fill:none;stroke:#000000;stroke-width:1px;stroke-linecap:butt;stroke-linejoin:miter;stroke-opacity:1"
       d="m -78.467405,-58.252573 12.37437,-0.02145"
       id="path4347"
       inkscape:connector-curvature="0"
       sodipodi:nodetypes="cc" />
    <path
       style="fill:none;stroke:#000000;stroke-width:1px;stroke-linecap:butt;stroke-linejoin:miter;stroke-opacity:1"
       d="m -72.478445,-58.14902 0,16.970563"
       id="path4349"
       inkscape:connector-curvature="0" />
    <path
       style="fill:none;stroke:#000000;stroke-width:1px;stroke-linecap:butt;stroke-linejoin:miter;stroke-opacity:1"
       d="m -78.488855,-41.178457 12.68503,0"
       id="path4351"
       inkscape:connector-curvature="0"
       sodipodi:nodetypes="cc" />
    <path
       style="fill:none;stroke:#000000;stroke-width:1.12863791px;stroke-linecap:butt;stroke-linejoin:miter;stroke-opacity:1;marker-end:url(#Arrow1Lend)"
       d="m -147.01388,-64.223747 c 10.33525,-25.37035 34.27433,-21.89562 79.067315,-35.18558"
       id="path4353"
       inkscape:connector-curvature="0"
       sodipodi:nodetypes="cc" />
    <flowRoot
       xml:space="preserve"
       id="flowRoot4435-7"
       style="font-size:24px;font-style:normal;font-weight:normal;line-height:125%;letter-spacing:0px;word-spacing:0px;fill:#000000;fill-opacity:1;stroke:none;font-family:Sans"
       transform="translate(-524.69772,132.87228)"><flowRegion
         id="flowRegion4437-92"><rect
           id="rect4439-0"
           width="213"
           height="30"
           x="475"
           y="101.36218"
           style="font-size:24px" /></flowRegion><flowPara
         id="flowPara4441-23">2    k</flowPara></flowRoot>    <flowRoot
       xml:space="preserve"
       id="flowRoot4317-7"
       style="font-size:28px;font-style:normal;font-weight:normal;line-height:125%;letter-spacing:0px;word-spacing:0px;fill:#000000;fill-opacity:1;stroke:none;font-family:Sans"
       transform="matrix(1,0,-0.24878523,1,-1228.104,-158.44413)"><flowRegion
         id="flowRegion4319-59"><rect
           id="rect4321-22"
           width="264.45795"
           height="49.497475"
           x="893.78296"
           y="281.61578"
           style="font-size:28px" /></flowRegion><flowPara
         id="flowPara4323-8">o</flowPara></flowRoot>    <path
       style="fill:none;stroke:#000000;stroke-width:2.0999999;stroke-linecap:butt;stroke-linejoin:miter;stroke-miterlimit:4;stroke-opacity:1;stroke-dasharray:none"
       d="m -397.86091,136.35939 6.25,-0.75"
       id="path3322"
       inkscape:connector-curvature="0" />
    <text
       xml:space="preserve"
       style="font-size:28px;font-style:normal;font-weight:normal;line-height:125%;letter-spacing:0px;word-spacing:0px;fill:#000000;fill-opacity:1;stroke:none;font-family:Sans"
       x="-33.206871"
       y="258.37469"
       id="text4227-56-0-6"
       sodipodi:linespacing="125%"
       inkscape:transform-center-x="5.3571429"
       inkscape:transform-center-y="-22.5"
       inkscape:export-filename="/home/luis/interaccion/granulares/2016/clases/estres/figs/mohr-coulomb1.png"
       inkscape:export-xdpi="300"
       inkscape:export-ydpi="300"><tspan
         sodipodi:role="line"
         id="tspan4229-2-9-2"
         x="-33.206871"
         y="258.37469">u</tspan></text>
    <path
       style="fill:none;stroke:#000000;stroke-width:1.79999995;stroke-linecap:butt;stroke-linejoin:miter;stroke-miterlimit:4;stroke-opacity:1;stroke-dasharray:none"
       d="m -29.885865,253.22966 -1.51523,6.69226 -2.90419,4.67196 -0.88388,1.51523"
       id="path4338-8"
       inkscape:connector-curvature="0"
       inkscape:export-filename="/home/luis/interaccion/granulares/2016/clases/estres/figs/mohr-coulomb1.png"
       inkscape:export-xdpi="300"
       inkscape:export-ydpi="300" />
    <flowRoot
       xml:space="preserve"
       id="flowRoot4314-0-8-9"
       style="font-size:24px;font-style:normal;font-weight:normal;line-height:125%;letter-spacing:0px;word-spacing:0px;fill:#000000;fill-opacity:1;stroke:none;font-family:Sans"
       transform="translate(-163.1997,140.91075)"><flowRegion
         id="flowRegion4316-9-7-7"><rect
           id="rect4318-3-9-3"
           width="68.041634"
           height="51.171574"
           x="146"
           y="106.36218"
           style="font-size:24px" /></flowRegion><flowPara
         id="flowPara4320-6-2-6">s</flowPara></flowRoot>    <path
       style="fill:none;stroke:#000000;stroke-width:1.5;stroke-linecap:butt;stroke-linejoin:miter;stroke-miterlimit:4;stroke-opacity:1;stroke-dasharray:none"
       d="m -56.214985,234.59319 74.95332,0.7071"
       id="path4929"
       inkscape:connector-curvature="0" />
    <path
       style="fill:none;stroke:#000000;stroke-width:1.79999995;stroke-linecap:butt;stroke-linejoin:miter;stroke-miterlimit:4;stroke-opacity:1;stroke-dasharray:none"
       d="m -48.816125,232.4932 7.36028,-17.19175 c 3.62177,-5.26309 5.8003,-5.48115 7.77818,-0.35356 -1.36803,7.0449 -6.06837,5.04496 -9.54594,6.36396"
       id="path4933"
       inkscape:connector-curvature="0"
       sodipodi:nodetypes="cccc" />
    <path
       style="fill:none;stroke:#000000;stroke-width:2.4000001;stroke-linecap:butt;stroke-linejoin:miter;stroke-miterlimit:4;stroke-opacity:1;stroke-dasharray:none;marker-end:url(#Arrow1Mend)"
       d="m 262.6853,-64.34664 276.2132,-0.3823"
       id="path3049-3-7-9-5"
       inkscape:connector-curvature="0"
       sodipodi:nodetypes="cc"
       inkscape:export-filename="/home/luis/interaccion/granulares/2016/clases/estres/figs/OSL1.png"
       inkscape:export-xdpi="300"
       inkscape:export-ydpi="300" />
    <flowRoot
       xml:space="preserve"
       id="flowRoot4314-6-5"
       style="font-size:32px;font-style:normal;font-weight:normal;line-height:125%;letter-spacing:0px;word-spacing:0px;fill:#000000;fill-opacity:1;stroke:none;font-family:Sans"
       transform="translate(88.52344,-127.49473)"
       inkscape:export-filename="/home/luis/interaccion/granulares/2016/clases/estres/figs/OSL1.png"
       inkscape:export-xdpi="300"
       inkscape:export-ydpi="300"><flowRegion
         id="flowRegion4316-5-0"><rect
           id="rect4318-69-4"
           width="44"
           height="54"
           x="146"
           y="106.36218"
           style="font-size:32px" /></flowRegion><flowPara
         id="flowPara4320-3-8">z</flowPara></flowRoot>    <flowRoot
       xml:space="preserve"
       id="flowRoot4314-6-5-3"
       style="font-size:32px;font-style:normal;font-weight:normal;line-height:125%;letter-spacing:0px;word-spacing:0px;fill:#000000;fill-opacity:1;stroke:none;font-family:Sans"
       transform="translate(383.77344,-216.24473)"
       inkscape:export-filename="/home/luis/interaccion/granulares/2016/clases/estres/figs/OSL1.png"
       inkscape:export-xdpi="300"
       inkscape:export-ydpi="300"><flowRegion
         id="flowRegion4316-5-0-5"><rect
           id="rect4318-69-4-6"
           width="44"
           height="54"
           x="146"
           y="106.36218"
           style="font-size:32px" /></flowRegion><flowPara
         id="flowPara4320-3-8-2">x</flowPara></flowRoot>    <rect
       style="fill:#d7eef4;fill-opacity:1;stroke:#000000;stroke-width:1.89999998;stroke-miterlimit:4;stroke-opacity:1;stroke-dasharray:none"
       id="rect4375-0-2"
       width="382"
       height="262"
       x="830.14972"
       y="427.13763"
       inkscape:export-filename="/home/luis/interaccion/granulares/2016/clases/estres/figs/phiR.png"
       inkscape:export-xdpi="300"
       inkscape:export-ydpi="300" />
    <flowRoot
       xml:space="preserve"
       id="flowRoot4314-6-7-2"
       style="font-size:32px;font-style:normal;font-weight:normal;line-height:125%;letter-spacing:0px;word-spacing:0px;fill:#000000;fill-opacity:1;stroke:none;font-family:Sans"
       transform="translate(1034.043,584.26576)"
       inkscape:export-filename="/home/luis/interaccion/granulares/2016/clases/estres/figs/phiR.png"
       inkscape:export-xdpi="300"
       inkscape:export-ydpi="300"><flowRegion
         id="flowRegion4316-5-4-8"><rect
           id="rect4318-69-5-9"
           width="44"
           height="54"
           x="146"
           y="106.36218"
           style="font-size:32px" /></flowRegion><flowPara
         id="flowPara4320-3-2-7">R</flowPara></flowRoot>    <flowRoot
       xml:space="preserve"
       id="flowRoot4314-0-5-3"
       style="font-size:32px;font-style:normal;font-weight:normal;line-height:125%;letter-spacing:0px;word-spacing:0px;fill:#000000;fill-opacity:1;stroke:none;font-family:Sans"
       transform="translate(669.75967,272.05046)"
       inkscape:export-filename="/home/luis/interaccion/granulares/2016/clases/estres/figs/phiR.png"
       inkscape:export-xdpi="300"
       inkscape:export-ydpi="300"><flowRegion
         id="flowRegion4316-9-4-6"><rect
           id="rect4318-3-7-1"
           width="91"
           height="44"
           x="146"
           y="106.36218"
           style="font-size:32px" /></flowRegion><flowPara
         id="flowPara4320-6-4-2">o(R)</flowPara></flowRoot>    <path
       style="fill:none;stroke:#ff3b4f;stroke-width:2.70000005;stroke-linecap:butt;stroke-linejoin:miter;stroke-miterlimit:4;stroke-opacity:1;stroke-dasharray:none"
       d="m 834.47345,682.58841 c 157.78888,-0.3793 145.82994,-193.37186 176.77675,-203.64677 36.9488,12.00427 10.0408,201.70075 155.5635,203.64675"
       id="path4152-9"
       inkscape:connector-curvature="0"
       sodipodi:nodetypes="ccc"
       inkscape:export-filename="/home/luis/interaccion/granulares/2016/clases/estres/figs/phiR.png"
       inkscape:export-xdpi="300"
       inkscape:export-ydpi="300" />
    <path
       style="fill:none;stroke:#000000;stroke-width:2.5;stroke-linecap:butt;stroke-linejoin:miter;stroke-miterlimit:4;stroke-opacity:1;stroke-dasharray:none"
       d="m 827.5,384.86218 -4,35.5"
       id="path3453"
       inkscape:connector-curvature="0"
       sodipodi:nodetypes="cc"
       inkscape:export-filename="/home/luis/interaccion/granulares/2016/clases/estres/figs/phiR.png"
       inkscape:export-xdpi="300"
       inkscape:export-ydpi="300" />
  </g>
</svg>
